"id","category","kind","wired","tag","table","id_col","id_val","datetime_col","m2m_id","room","place","serial_id"
"PIR001","PIR","PIR","FALSE","tag_name_censored1","table_name_censored1","sensorId","PIR001","getDatetime","M2M002",101,"toilet","serial_id_censored"
"CPI001","PIR","CPI","TRUE","tag_name_censored2","table_name_censored2","sensorId","CPI001","getDatetime","M2M001",0,"garage front","serial_id_censored"
"WTK001","PIR","WTK","TRUE","tag_name_censored3","table_name_censored3","sensorId","WTK001","getDatetime","M2M001",0,"garage front",
"RHT001","RHT","RHT","FALSE","tag_name_censored4","table_name_censored4","sensorId","RHT001","getDatetime","M2M002",101,"toilet","serial_id_censored"
"EDY001","RHT","EDY","TRUE","tag_name_censored5","table_name_censored5","sensorId","EDY001","getDatetime","M2M002",101,"LDK",
"ILL001","ILL","ILL","FALSE","tag_name_censored6","table_name_censored6","sensorId","ILL001","getDatetime","M2M001",0,"garage","serial_id_censored"
"LPP001","ILL","LPP","TRUE","tag_name_censored7","table_name_censored7","sensorId","LPP001","getDatetime","M2M001",0,"RF",
"OCS001","OCS","OCS","FALSE","tag_name_censored8","table_name_censored8","sensorId","OCS001","getDatetime","M2M001",0,"garage shutter","serial_id_censored"
"PND001","OCS","PND","TRUE","tag_name_censored9","table_name_censored9","col_censored","(0101010001)101号室","occurrenceDatetime",,101,"entrance door",
